{
"meta":{"julianDay":2456283.008576389,"longitude":86.93,"latitude":27.98},
"houses":[
         "12Can22", "5Leo09", "0Vir27", "0Lib32", "5Sco10", "10Sag22", "12Cap22", "5Aqu09", "0Pis27", "0Ari32", "5Tau10", "10Gem22" ],
"objects":[
     {"id":"0", "name":"Sun", "position":"0Cap03", "speed":1.02},  
     {"id":"1", "name":"Moon", "position":"14Ari46", "speed":12.26},  
     {"id":"2", "name":"Merc", "position":"14Sag46", "speed":1.48},  
     {"id":"3", "name":"Venu", "position":"6Sag38", "speed":1.25},  
     {"id":"4", "name":"Mars", "position":"26Cap28", "speed":0.78},  
     {"id":"5", "name":"Jupi", "position":"8Gem54", "speed":-0.12},  
     {"id":"6", "name":"Satu", "position":"8Sco40", "speed":0.09},  
     {"id":"7", "name":"Uran", "position":"4Ari38", "speed":0.01},  
     {"id":"8", "name":"Nept", "position":"0Pis49", "speed":0.02},  
     {"id":"9", "name":"Plut", "position":"8Cap57", "speed":0.04},  
     {"id":"10", "name":"mNde", "position":"24Sco09", "speed":-0.05},  
     {"id":"15", "name":"Chir", "position":"5Pis38", "speed":0.03},  
     {"id":"17", "name":"Cere", "position":"26Gem06", "speed":-0.24},  
     {"id":"18", "name":"Pall", "position":"25Pis22", "speed":0.18},  
     {"id":"19", "name":"Juno", "position":"0Cap52", "speed":0.36},  
     {"id":"20", "name":"Vest", "position":"14Gem33", "speed":-0.24},  
     {"id":"12", "name":"Lili", "position":"11Gem07", "speed":0.11},  
     {"id":"-86", "name":"Fort", "position":"27Pis38", "speed":0.00},  
     {"id":"-84", "name":"East", "position":"0Can27", "speed":0.00},  
     {"id":"-85", "name":"Vert", "position":"23Sco28", "speed":0.00},  
     {"id":"-99", "name":"Asc", "position":"12Can22", "speed":0.00},  
     {"id":"-93", "name":"Desc", "position":"12Cap22", "speed":0.00},  
     {"id":"-90", "name":"MC", "position":"0Ari32", "speed":0.00},  
     {"id":"-96", "name":"IC", "position":"0Lib32", "speed":0.00}],
"aspects":[
        {"name":"Squ", "planetA":"Sun", "planetB":"Uran", "angle":90.0, "influence":1.0, "orb":4.60}, 
        {"name":"Sex", "planetA":"Sun", "planetB":"Nept", "angle":60.0, "influence":1.0, "orb":0.77}, 
        {"name":"Opp", "planetA":"Sun", "planetB":"Cere", "angle":180.0, "influence":1.0, "orb":3.95}, 
        {"name":"Squ", "planetA":"Sun", "planetB":"Pall", "angle":90.0, "influence":1.0, "orb":4.67}, 
        {"name":"Con", "planetA":"Sun", "planetB":"Juno", "angle":0.0, "influence":1.0, "orb":0.82}, 
        {"name":"Squ", "planetA":"Sun", "planetB":"MC", "angle":90.0, "influence":1.0, "orb":0.49}, 
        {"name":"Tri", "planetA":"Moon", "planetB":"Merc", "angle":120.0, "influence":1.0, "orb":0.00}, 
        {"name":"Sex", "planetA":"Moon", "planetB":"Vest", "angle":60.0, "influence":1.0, "orb":0.22}, 
        {"name":"Squ", "planetA":"Moon", "planetB":"Asc", "angle":90.0, "influence":1.0, "orb":2.40}, 
        {"name":"Opp", "planetA":"Merc", "planetB":"Vest", "angle":180.0, "influence":1.0, "orb":0.22}, 
        {"name":"Opp", "planetA":"Merc", "planetB":"Lili", "angle":180.0, "influence":1.0, "orb":3.64}, 
        {"name":"Opp", "planetA":"Venu", "planetB":"Jupi", "angle":180.0, "influence":1.0, "orb":2.26}, 
        {"name":"Tri", "planetA":"Venu", "planetB":"Uran", "angle":120.0, "influence":1.0, "orb":2.00}, 
        {"name":"Squ", "planetA":"Venu", "planetB":"Chir", "angle":90.0, "influence":1.0, "orb":1.01}, 
        {"name":"Opp", "planetA":"Venu", "planetB":"Lili", "angle":180.0, "influence":1.0, "orb":4.48}, 
        {"name":"Sex", "planetA":"Mars", "planetB":"mNde", "angle":60.0, "influence":1.0, "orb":2.31}, 
        {"name":"Sex", "planetA":"Mars", "planetB":"Pall", "angle":60.0, "influence":1.0, "orb":1.09}, 
        {"name":"Squ", "planetA":"Jupi", "planetB":"Chir", "angle":90.0, "influence":1.0, "orb":3.26}, 
        {"name":"Con", "planetA":"Jupi", "planetB":"Vest", "angle":0.0, "influence":1.0, "orb":5.65}, 
        {"name":"Con", "planetA":"Jupi", "planetB":"Lili", "angle":0.0, "influence":1.0, "orb":2.23}, 
        {"name":"Sex", "planetA":"Satu", "planetB":"Plut", "angle":60.0, "influence":1.0, "orb":0.29}, 
        {"name":"Tri", "planetA":"Satu", "planetB":"Chir", "angle":120.0, "influence":1.0, "orb":3.03}, 
        {"name":"Tri", "planetA":"Satu", "planetB":"Asc", "angle":120.0, "influence":1.0, "orb":3.69}, 
        {"name":"Squ", "planetA":"Uran", "planetB":"Plut", "angle":90.0, "influence":1.0, "orb":4.31}, 
        {"name":"Squ", "planetA":"Uran", "planetB":"Juno", "angle":90.0, "influence":1.0, "orb":3.78}, 
        {"name":"Con", "planetA":"Uran", "planetB":"MC", "angle":0.0, "influence":1.0, "orb":4.11}, 
        {"name":"Con", "planetA":"Nept", "planetB":"Chir", "angle":0.0, "influence":1.0, "orb":4.82}, 
        {"name":"Tri", "planetA":"Nept", "planetB":"Cere", "angle":120.0, "influence":1.0, "orb":4.72}, 
        {"name":"Sex", "planetA":"Nept", "planetB":"Juno", "angle":60.0, "influence":1.0, "orb":0.05}, 
        {"name":"Opp", "planetA":"Plut", "planetB":"Asc", "angle":180.0, "influence":1.0, "orb":3.41}, 
        {"name":"Tri", "planetA":"mNde", "planetB":"Pall", "angle":120.0, "influence":1.0, "orb":1.22}, 
        {"name":"Squ", "planetA":"Cere", "planetB":"Pall", "angle":90.0, "influence":1.0, "orb":0.72}, 
        {"name":"Opp", "planetA":"Cere", "planetB":"Juno", "angle":180.0, "influence":1.0, "orb":4.77}, 
        {"name":"Squ", "planetA":"Cere", "planetB":"MC", "angle":90.0, "influence":1.0, "orb":4.44}, 
        {"name":"Con", "planetA":"Pall", "planetB":"MC", "angle":0.0, "influence":1.0, "orb":5.16}, 
        {"name":"Squ", "planetA":"Juno", "planetB":"MC", "angle":90.0, "influence":1.0, "orb":0.33}, 
        {"name":"Con", "planetA":"Vest", "planetB":"Lili", "angle":0.0, "influence":1.0, "orb":3.42}]    
}